Point(1) = {0, 0, 0, 1.0};
Point(2) = {1, 0, 0, 1.0};
Point(3) = {1, 1, 0, 1.0};
Point(4) = {0, 1, 0, 1.0};
Line(1) = {4, 1};
Line(2) = {1, 2};
Line(3) = {2, 3};
Line(4) = {3, 4};
Line Loop(5) = {4, 1, 2, 3};
Plane Surface(6) = {5};
Physical Line(7) = {1, 2, 3};
Physical Line(8) = {4};
Physical Surface(9) = {6};
