Point(1) = {0, 0, 0, 1.0};
Point(2) = {10, 0, 0, 1.0};
Point(3) = {10, 2, 0, 1.0};
Point(4) = {0, 2, 0, 1.0};
Point(5) = {2, 1, 0, 1.0};
Point(6) = {2.5, 1, 0, 1.0};
Point(7) = {1.5, 1, 0, 1.0};
Point(8) = {2, 1.5, 0, 1.0};
Point(9) = {2, 0.5, 0, 1.0};
Line(1) = {1, 2};
Line(2) = {2, 3};
Line(3) = {3, 4};
Line(4) = {4, 1};
Circle(5) = {9, 5, 6};
Circle(6) = {6, 5, 8};
Circle(7) = {8, 5, 7};
Circle(8) = {7, 5, 9};
Line Loop(9) = {1, 2, 3, 4};
Line Loop(10) = {5, 6, 7, 8};
Plane Surface(11) = {9, 10};
Physical Line(12) = {4, 2};
Physical Line(13) = {1, 3, 6, 5, 8, 7};
Physical Surface(14) = {11};
