Point(1) = {0, 0, 0, 1.0};
Point(2) = {10, 0, 0, 1.0};
Point(3) = {10, 1, 0, 1.0};
Point(4) = {0, 1, 0, 1.0};
Point(5) = {9, 1, 0, 1.0};
Line(1) = {4, 1};
Line(2) = {1, 2};
Line(3) = {2, 3};
Line(4) = {3, 5};
Line(5) = {5, 4};
Line Loop(6) = {2, 3, 4, 5, 1};
Plane Surface(7) = {6};
Physical Line(8) = {1};
Physical Line(9) = {2, 5};
Physical Line(10) = {3};
Physical Line(11) = {4};
Physical Surface(12) = {7};
