Point(1) = {-1.8, -0.1, 0, 1.0};
Point(2) = {-1.5, 0.9, 0, 1.0};
Point(3) = {-1.4, 0.9, 0, 1.0};
Point(4) = {-1.8, -0.2, 0, 1.0};
Point(5) = {-1.4, 0.7, 0, 1.0};
Point(6) = {-0.8, 0.2, 0, 1.0};
Point(7) = {-0.8, -0.1, 0, 1.0};
Point(8) = {-0.6, 1, 0, 1.0};
Point(9) = {-0.5, 0.8, 0, 1.0};
Point(10) = {-0.1, 0, 0, 1.0};
Point(11) = {0, 0.2, 0, 1.0};
Point(12) = {0.1, -0, 0, 1.0};
Point(13) = {0.5, 0.9, 0, 1.0};
Point(14) = {0.3, 1, 0, 1.0};
Point(15) = {1.1, 1, 0, 1.0};
Point(16) = {1.1, -0.1, 0, 1.0};
Point(17) = {0.8, 0.9, 0, 1.0};
Point(18) = {0.8, -0.1, 0, 1.0};
Line(1) = {1, 2};
Line(2) = {4, 5};
Line(3) = {2, 3};
Line(4) = {3, 6};
Line(5) = {5, 7};
Line(6) = {7, 9};
Line(7) = {6, 8};
Line(8) = {8, 11};
Line(9) = {9, 10};
Line(10) = {10, 12};
Line(11) = {12, 13};
Line(12) = {11, 14};
Line(13) = {14, 15};
Line(14) = {15, 16};
Line(15) = {16, 18};
Line(16) = {18, 17};
Line(17) = {17, 13};
Line(18) = {4, 1};
Line Loop(19) = {14, 15, 16, 17, -11, -10, -9, -6, -5, -2, 18, 1, 3, 4, 7, 8, 12, 13};
Plane Surface(20) = {19};
Physical Line(21) = {18};
Physical Line(22) = {1, 3, 4, 7, 8, 12, 13, 15, 16, 17, 11, 10, 9, 6, 5, 2};
Physical Line(23) = {14};
Physical Surface(24) = {20};
