Point(1) = {-4, 0, 0, 1.0};
Point(2) = {8, 0, 0, 1.0};
Point(3) = {8, -10, 0, 1.0};
Point(4) = {6, -10, 0, 1.0};
Point(5) = {6, -2, 0, 1.0};
Point(6) = {-4, -2, 0, 1.0};
Point(7) = {8, -8, 0, 1.0};
Line(1) = {6, 1};
Line(2) = {1, 2};
Line(3) = {2, 7};
Line(4) = {7, 3};
Line(5) = {3, 4};
Line(6) = {4, 5};
Line(7) = {5, 6};
Line Loop(8) = {3, 4, 5, 6, 7, 1, 2};
Plane Surface(9) = {8};
Physical Line(10) = {1};
Physical Line(11) = {2, 3, 5, 6, 7};
Physical Line(12) = {4};
Physical Surface(13) = {9};
