Point(1) = {0, 0, 0, 1.0};
Point(2) = {6, 0, 0, 1.0};
Point(3) = {6, -4, 0, 1.0};
Point(4) = {0, -4, 0, 1.0};
Point(5) = {2, -2, 0, 1.0};
Point(6) = {2, -1.5, 0, 1.0};
Point(7) = {2, -2.5, 0, 1.0};
Point(8) = {2.5, -2, 0, 1.0};
Point(9) = {1.5, -2, 0, 1.0};
Line(1) = {1, 4};
Line(2) = {4, 3};
Line(3) = {3, 2};
Line(4) = {2, 1};
Circle(5) = {7, 5, 8};
Circle(6) = {8, 5, 6};
Circle(7) = {6, 5, 9};
Circle(8) = {9, 5, 7};
Line Loop(9) = {4, 1, 2, 3};
Line Loop(10) = {6, 7, 8, 5};
Plane Surface(11) = {9, 10};
Physical Line(12) = {3};
Physical Line(13) = {1};
Physical Line(14) = {4, 2, 8, 5, 6, 7};
Physical Surface(15) = {11};
