Point(1) = {0, 1, 0, 1.0};
Point(2) = {20, 1, 0, 1.0};
Point(3) = {20, 3, 0, 1.0};
Point(4) = {0, 3, 0, 1.0};
Point(5) = {8, 2, 0, 1.0};
Point(6) = {10, 2, 0, 1.0};
Point(7) = {12, 2, 0, 1.0};
Point(8) = {12, 1.25, 0, 1.0};
Point(9) = {12, 2.75, 0, 1.0};
Point(10) = {12.75, 2, 0, 1.0};
Point(11) = {11.25, 2, 0, 1.0};
Point(12) = {10.75, 2, 0, 1.0};
Point(13) = {9.25, 2, 0, 1.0};
Point(14) = {10, 2.75, 0, 1.0};
Point(15) = {10, 1.25, 0, 1.0};
Point(16) = {8, 1.25, 0, 1.0};
Point(17) = {8, 2.75, 0, 1.0};
Point(18) = {8.75, 2, 0, 1.0};
Point(19) = {7.25, 2, 0, 1.0};
Point(20) = {18, 3, 0, 1.0};
Line(1) = {1, 2};
Line(2) = {2, 3};
Line(3) = {3, 20};
Line(4) = {20, 4};
Line(5) = {4, 1};
Circle(6) = {8, 7, 10};
Circle(7) = {10, 7, 9};
Circle(8) = {9, 7, 11};
Circle(9) = {11, 7, 8};
Circle(10) = {15, 6, 12};
Circle(11) = {12, 6, 14};
Circle(12) = {14, 6, 13};
Circle(13) = {13, 6, 15};
Circle(14) = {16, 5, 18};
Circle(15) = {18, 5, 17};
Circle(16) = {17, 5, 19};
Circle(17) = {19, 5, 16};
Line Loop(18) = {1, 2, 3, 4, 5};
Line Loop(19) = {6, 7, 8, 9};
Line Loop(20) = {10, 11, 12, 13};
Line Loop(21) = {14, 15, 16, 17};
Plane Surface(22) = {18, 19, 20, 21};
Physical Line(23) = {5};
Physical Line(24) = {1, 4, 17, 14, 15, 16, 12, 13, 10, 11, 8, 9, 6, 7};
Physical Line(25) = {2};
Physical Line(26) = {3};
Physical Surface(27) = {22};
