Point(1) = {0, 0, 0, 1.0};
Point(2) = {10, 0, 0, 1.0};
Point(3) = {10, 2, 0, 1.0};
Point(4) = {0, 2, 0, 1.0};
Point(5) = {2, 0, 0, 1.0};
Line(1) = {1, 5};
Line(2) = {5, 2};
Line(3) = {2, 3};
Line(4) = {3, 4};
Line(5) = {4, 1};
Line Loop(6) = {2, 3, 4, 5, 1};
Plane Surface(7) = {6};
Physical Line(8) = {5, 1};
Physical Line(9) = {2, 4};
Physical Line(10) = {3};
Physical Surface(11) = {7};
