$MeshFormat
2.2 0 8
$EndMeshFormat
$Nodes
257
1 -1.1 0.2 0
2 0.3 0.2 0
3 -1.094531250000016 0.2 0
4 -1.089062500000032 0.2 0
5 -1.083593750000045 0.2 0
6 -1.078125000000065 0.2 0
7 -1.072656250000073 0.2 0
8 -1.067187500000075 0.2 0
9 -1.061718750000071 0.2 0
10 -1.056250000000068 0.2 0
11 -1.050781250000064 0.2 0
12 -1.045312500000038 0.2 0
13 -1.039843750000039 0.2 0
14 -1.03437500000004 0.2 0
15 -1.028906250000034 0.2 0
16 -1.023437500000022 0.2 0
17 -1.017968750000015 0.2 0
18 -1.012500000000019 0.2 0
19 -1.007031250000032 0.2 0
20 -1.001562500000039 0.2 0
21 -0.99609375000005 0.2 0
22 -0.9906250000000538 0.2 0
23 -0.9851562500000597 0.2 0
24 -0.9796875000000655 0.2 0
25 -0.9742187500000741 0.2 0
26 -0.9687500000000797 0.2 0
27 -0.9632812500000816 0.2 0
28 -0.9578125000000826 0.2 0
29 -0.9523437500000796 0.2 0
30 -0.9468750000000784 0.2 0
31 -0.9414062500000822 0.2 0
32 -0.9359375000000828 0.2 0
33 -0.9304687500000894 0.2 0
34 -0.9250000000000993 0.2 0
35 -0.9195312500000926 0.2 0
36 -0.9140625000000944 0.2 0
37 -0.9085937500001057 0.2 0
38 -0.9031250000001101 0.2 0
39 -0.8976562500001094 0.2 0
40 -0.8921875000001084 0.2 0
41 -0.8867187500001072 0.2 0
42 -0.8812500000001044 0.2 0
43 -0.8757812500001034 0.2 0
44 -0.8703125000000981 0.2 0
45 -0.8648437500000955 0.2 0
46 -0.8593750000000899 0.2 0
47 -0.8539062500000985 0.2 0
48 -0.8484375000001061 0.2 0
49 -0.84296875000011 0.2 0
50 -0.8375000000001143 0.2 0
51 -0.832031250000111 0.2 0
52 -0.8265625000001073 0.2 0
53 -0.8210937500001041 0.2 0
54 -0.815625000000094 0.2 0
55 -0.8101562500000913 0.2 0
56 -0.8046875000000921 0.2 0
57 -0.7992187500000881 0.2 0
58 -0.7937500000000794 0.2 0
59 -0.788281250000088 0.2 0
60 -0.7828125000000971 0.2 0
61 -0.7773437500001115 0.2 0
62 -0.771875000000114 0.2 0
63 -0.7664062500001132 0.2 0
64 -0.7609375000001198 0.2 0
65 -0.7554687500001207 0.2 0
66 -0.7500000000001305 0.2 0
67 -0.7445312500001288 0.2 0
68 -0.7390625000001215 0.2 0
69 -0.7335937500001264 0.2 0
70 -0.728125000000134 0.2 0
71 -0.7226562500001465 0.2 0
72 -0.717187500000152 0.2 0
73 -0.7117187500001596 0.2 0
74 -0.7062500000001686 0.2 0
75 -0.7007812500001851 0.2 0
76 -0.6953125000002007 0.2 0
77 -0.689843750000215 0.2 0
78 -0.6843750000002207 0.2 0
79 -0.6789062500002273 0.2 0
80 -0.6734375000002252 0.2 0
81 -0.6679687500002358 0.2 0
82 -0.6625000000002317 0.2 0
83 -0.6570312500002393 0.2 0
84 -0.6515625000002495 0.2 0
85 -0.6460937500002673 0.2 0
86 -0.6406250000002942 0.2 0
87 -0.6351562500003023 0.2 0
88 -0.6296875000003329 0.2 0
89 -0.6242187500003498 0.2 0
90 -0.6187500000003697 0.2 0
91 -0.6132812500003779 0.2 0
92 -0.6078125000003933 0.2 0
93 -0.6023437500003948 0.2 0
94 -0.5968750000003988 0.2 0
95 -0.5914062500004098 0.2 0
96 -0.5859375000004208 0.2 0
97 -0.5804687500004316 0.2 0
98 -0.5750000000004426 0.2 0
99 -0.5695312500004505 0.2 0
100 -0.5640625000004584 0.2 0
101 -0.5585937500004663 0.2 0
102 -0.5531250000004742 0.2 0
103 -0.5476562500004819 0.2 0
104 -0.5421875000004898 0.2 0
105 -0.5367187500004976 0.2 0
106 -0.5312500000005055 0.2 0
107 -0.5257812500005133 0.2 0
108 -0.5203125000005212 0.2 0
109 -0.5148437500005291 0.2 0
110 -0.5093750000005369 0.2 0
111 -0.5039062500005448 0.2 0
112 -0.4984375000005525 0.2 0
113 -0.4929687500005604 0.2 0
114 -0.4875000000005683 0.2 0
115 -0.4820312500005761 0.2 0
116 -0.476562500000584 0.2 0
117 -0.4710937500005918 0.2 0
118 -0.4656250000005997 0.2 0
119 -0.4601562500006076 0.2 0
120 -0.4546875000006154 0.2 0
121 -0.4492187500006233 0.2 0
122 -0.443750000000631 0.2 0
123 -0.4382812500006389 0.2 0
124 -0.4328125000006467 0.2 0
125 -0.4273437500006546 0.2 0
126 -0.4218750000006625 0.2 0
127 -0.4164062500006703 0.2 0
128 -0.4109375000006782 0.2 0
129 -0.4054687500006861 0.2 0
130 -0.4000000000006939 0.2 0
131 -0.3945312500006919 0.2 0
132 -0.3890625000006899 0.2 0
133 -0.3835937500006915 0.2 0
134 -0.3781250000006864 0.2 0
135 -0.3726562500006867 0.2 0
136 -0.367187500000687 0.2 0
137 -0.3617187500006904 0.2 0
138 -0.3562500000006941 0.2 0
139 -0.3507812500006962 0.2 0
140 -0.3453125000006978 0.2 0
141 -0.3398437500006882 0.2 0
142 -0.3343750000006845 0.2 0
143 -0.3289062500006837 0.2 0
144 -0.3234375000006789 0.2 0
145 -0.3179687500006738 0.2 0
146 -0.312500000000671 0.2 0
147 -0.3070312500006562 0.2 0
148 -0.3015625000006459 0.2 0
149 -0.2960937500006331 0.2 0
150 -0.290625000000619 0.2 0
151 -0.2851562500006206 0.2 0
152 -0.2796875000006163 0.2 0
153 -0.2742187500006168 0.2 0
154 -0.2687500000006197 0.2 0
155 -0.2632812500006081 0.2 0
156 -0.2578125000005915 0.2 0
157 -0.2523437500005677 0.2 0
158 -0.2468750000005473 0.2 0
159 -0.2414062500005287 0.2 0
160 -0.2359375000005096 0.2 0
161 -0.2304687500004915 0.2 0
162 -0.2250000000004817 0.2 0
163 -0.2195312500004685 0.2 0
164 -0.2140625000004559 0.2 0
165 -0.2085937500004408 0.2 0
166 -0.2031250000004312 0.2 0
167 -0.1976562500004188 0.2 0
168 -0.1921875000004086 0.2 0
169 -0.1867187500004044 0.2 0
170 -0.1812500000003954 0.2 0
171 -0.1757812500003932 0.2 0
172 -0.1703125000003889 0.2 0
173 -0.1648437500003836 0.2 0
174 -0.1593750000003793 0.2 0
175 -0.1539062500003592 0.2 0
176 -0.1484375000003442 0.2 0
177 -0.1429687500003359 0.2 0
178 -0.1375000000003321 0.2 0
179 -0.1320312500003332 0.2 0
180 -0.1265625000003394 0.2 0
181 -0.1210937500003423 0.2 0
182 -0.1156250000003399 0.2 0
183 -0.1101562500003403 0.2 0
184 -0.1046875000003409 0.2 0
185 -0.09921875000033098 0.2 0
186 -0.09375000000032951 0.2 0
187 -0.08828125000032028 0.2 0
188 -0.0828125000003137 0.2 0
189 -0.07734375000031068 0.2 0
190 -0.07187500000031721 0.2 0
191 -0.06640625000031841 0.2 0
192 -0.06093750000031939 0.2 0
193 -0.05546875000032658 0.2 0
194 -0.05000000000032156 0.2 0
195 -0.04453125000030567 0.2 0
196 -0.03906250000029354 0.2 0
197 -0.03359375000028053 0.2 0
198 -0.02812500000026419 0.2 0
199 -0.02265625000024207 0.2 0
200 -0.01718750000022462 0.2 0
201 -0.01171875000020006 0.2 0
202 -0.006250000000175504 0.2 0
203 -0.0007812500001551648 0.2 0
204 0.004687499999862732 0.2 0
205 0.01015624999988152 0.2 0
206 0.01562499999990097 0.2 0
207 0.02109374999992286 0.2 0
208 0.02656249999994231 0.2 0
209 0.03203124999995577 0.2 0
210 0.03749999999997078 0.2 0
211 0.04296874999999045 0.2 0
212 0.04843750000000058 0.2 0
213 0.05390625000001603 0.2 0
214 0.05937500000002682 0.2 0
215 0.06484375000003895 0.2 0
216 0.07031250000005707 0.2 0
217 0.07578125000007363 0.2 0
218 0.08125000000008864 0.2 0
219 0.08671875000010454 0.2 0
220 0.09218750000011688 0.2 0
221 0.09765625000013278 0.2 0
222 0.1031250000001562 0.2 0
223 0.1085937500001577 0.2 0
224 0.1140625000001654 0.2 0
225 0.1195312500001653 0.2 0
226 0.1250000000001665 0.2 0
227 0.1304687500001793 0.2 0
228 0.1359375000001826 0.2 0
229 0.1414062500001958 0.2 0
230 0.1468750000002115 0.2 0
231 0.1523437500002125 0.2 0
232 0.1578125000002188 0.2 0
233 0.1632812500002347 0.2 0
234 0.1687500000002364 0.2 0
235 0.174218750000245 0.2 0
236 0.1796875000002478 0.2 0
237 0.185156250000228 0.2 0
238 0.1906250000002065 0.2 0
239 0.196093750000188 0.2 0
240 0.2015625000001633 0.2 0
241 0.2070312500001574 0.2 0
242 0.2125000000001445 0.2 0
243 0.2179687500001375 0.2 0
244 0.2234375000001372 0.2 0
245 0.2289062500001424 0.2 0
246 0.2343750000001477 0.2 0
247 0.239843750000142 0.2 0
248 0.2453125000001422 0.2 0
249 0.2507812500001183 0.2 0
250 0.2562500000001089 0.2 0
251 0.261718750000099 0.2 0
252 0.2671875000000985 0.2 0
253 0.27265625000007 0.2 0
254 0.2781250000000521 0.2 0
255 0.2835937500000347 0.2 0
256 0.2890625000000171 0.2 0
257 0.2945312500000155 0.2 0
$EndNodes
$Elements
258
1 15 2 2 1 1
2 15 2 3 2 2
3 1 2 4 1 1 3
4 1 2 4 1 3 4
5 1 2 4 1 4 5
6 1 2 4 1 5 6
7 1 2 4 1 6 7
8 1 2 4 1 7 8
9 1 2 4 1 8 9
10 1 2 4 1 9 10
11 1 2 4 1 10 11
12 1 2 4 1 11 12
13 1 2 4 1 12 13
14 1 2 4 1 13 14
15 1 2 4 1 14 15
16 1 2 4 1 15 16
17 1 2 4 1 16 17
18 1 2 4 1 17 18
19 1 2 4 1 18 19
20 1 2 4 1 19 20
21 1 2 4 1 20 21
22 1 2 4 1 21 22
23 1 2 4 1 22 23
24 1 2 4 1 23 24
25 1 2 4 1 24 25
26 1 2 4 1 25 26
27 1 2 4 1 26 27
28 1 2 4 1 27 28
29 1 2 4 1 28 29
30 1 2 4 1 29 30
31 1 2 4 1 30 31
32 1 2 4 1 31 32
33 1 2 4 1 32 33
34 1 2 4 1 33 34
35 1 2 4 1 34 35
36 1 2 4 1 35 36
37 1 2 4 1 36 37
38 1 2 4 1 37 38
39 1 2 4 1 38 39
40 1 2 4 1 39 40
41 1 2 4 1 40 41
42 1 2 4 1 41 42
43 1 2 4 1 42 43
44 1 2 4 1 43 44
45 1 2 4 1 44 45
46 1 2 4 1 45 46
47 1 2 4 1 46 47
48 1 2 4 1 47 48
49 1 2 4 1 48 49
50 1 2 4 1 49 50
51 1 2 4 1 50 51
52 1 2 4 1 51 52
53 1 2 4 1 52 53
54 1 2 4 1 53 54
55 1 2 4 1 54 55
56 1 2 4 1 55 56
57 1 2 4 1 56 57
58 1 2 4 1 57 58
59 1 2 4 1 58 59
60 1 2 4 1 59 60
61 1 2 4 1 60 61
62 1 2 4 1 61 62
63 1 2 4 1 62 63
64 1 2 4 1 63 64
65 1 2 4 1 64 65
66 1 2 4 1 65 66
67 1 2 4 1 66 67
68 1 2 4 1 67 68
69 1 2 4 1 68 69
70 1 2 4 1 69 70
71 1 2 4 1 70 71
72 1 2 4 1 71 72
73 1 2 4 1 72 73
74 1 2 4 1 73 74
75 1 2 4 1 74 75
76 1 2 4 1 75 76
77 1 2 4 1 76 77
78 1 2 4 1 77 78
79 1 2 4 1 78 79
80 1 2 4 1 79 80
81 1 2 4 1 80 81
82 1 2 4 1 81 82
83 1 2 4 1 82 83
84 1 2 4 1 83 84
85 1 2 4 1 84 85
86 1 2 4 1 85 86
87 1 2 4 1 86 87
88 1 2 4 1 87 88
89 1 2 4 1 88 89
90 1 2 4 1 89 90
91 1 2 4 1 90 91
92 1 2 4 1 91 92
93 1 2 4 1 92 93
94 1 2 4 1 93 94
95 1 2 4 1 94 95
96 1 2 4 1 95 96
97 1 2 4 1 96 97
98 1 2 4 1 97 98
99 1 2 4 1 98 99
100 1 2 4 1 99 100
101 1 2 4 1 100 101
102 1 2 4 1 101 102
103 1 2 4 1 102 103
104 1 2 4 1 103 104
105 1 2 4 1 104 105
106 1 2 4 1 105 106
107 1 2 4 1 106 107
108 1 2 4 1 107 108
109 1 2 4 1 108 109
110 1 2 4 1 109 110
111 1 2 4 1 110 111
112 1 2 4 1 111 112
113 1 2 4 1 112 113
114 1 2 4 1 113 114
115 1 2 4 1 114 115
116 1 2 4 1 115 116
117 1 2 4 1 116 117
118 1 2 4 1 117 118
119 1 2 4 1 118 119
120 1 2 4 1 119 120
121 1 2 4 1 120 121
122 1 2 4 1 121 122
123 1 2 4 1 122 123
124 1 2 4 1 123 124
125 1 2 4 1 124 125
126 1 2 4 1 125 126
127 1 2 4 1 126 127
128 1 2 4 1 127 128
129 1 2 4 1 128 129
130 1 2 4 1 129 130
131 1 2 4 1 130 131
132 1 2 4 1 131 132
133 1 2 4 1 132 133
134 1 2 4 1 133 134
135 1 2 4 1 134 135
136 1 2 4 1 135 136
137 1 2 4 1 136 137
138 1 2 4 1 137 138
139 1 2 4 1 138 139
140 1 2 4 1 139 140
141 1 2 4 1 140 141
142 1 2 4 1 141 142
143 1 2 4 1 142 143
144 1 2 4 1 143 144
145 1 2 4 1 144 145
146 1 2 4 1 145 146
147 1 2 4 1 146 147
148 1 2 4 1 147 148
149 1 2 4 1 148 149
150 1 2 4 1 149 150
151 1 2 4 1 150 151
152 1 2 4 1 151 152
153 1 2 4 1 152 153
154 1 2 4 1 153 154
155 1 2 4 1 154 155
156 1 2 4 1 155 156
157 1 2 4 1 156 157
158 1 2 4 1 157 158
159 1 2 4 1 158 159
160 1 2 4 1 159 160
161 1 2 4 1 160 161
162 1 2 4 1 161 162
163 1 2 4 1 162 163
164 1 2 4 1 163 164
165 1 2 4 1 164 165
166 1 2 4 1 165 166
167 1 2 4 1 166 167
168 1 2 4 1 167 168
169 1 2 4 1 168 169
170 1 2 4 1 169 170
171 1 2 4 1 170 171
172 1 2 4 1 171 172
173 1 2 4 1 172 173
174 1 2 4 1 173 174
175 1 2 4 1 174 175
176 1 2 4 1 175 176
177 1 2 4 1 176 177
178 1 2 4 1 177 178
179 1 2 4 1 178 179
180 1 2 4 1 179 180
181 1 2 4 1 180 181
182 1 2 4 1 181 182
183 1 2 4 1 182 183
184 1 2 4 1 183 184
185 1 2 4 1 184 185
186 1 2 4 1 185 186
187 1 2 4 1 186 187
188 1 2 4 1 187 188
189 1 2 4 1 188 189
190 1 2 4 1 189 190
191 1 2 4 1 190 191
192 1 2 4 1 191 192
193 1 2 4 1 192 193
194 1 2 4 1 193 194
195 1 2 4 1 194 195
196 1 2 4 1 195 196
197 1 2 4 1 196 197
198 1 2 4 1 197 198
199 1 2 4 1 198 199
200 1 2 4 1 199 200
201 1 2 4 1 200 201
202 1 2 4 1 201 202
203 1 2 4 1 202 203
204 1 2 4 1 203 204
205 1 2 4 1 204 205
206 1 2 4 1 205 206
207 1 2 4 1 206 207
208 1 2 4 1 207 208
209 1 2 4 1 208 209
210 1 2 4 1 209 210
211 1 2 4 1 210 211
212 1 2 4 1 211 212
213 1 2 4 1 212 213
214 1 2 4 1 213 214
215 1 2 4 1 214 215
216 1 2 4 1 215 216
217 1 2 4 1 216 217
218 1 2 4 1 217 218
219 1 2 4 1 218 219
220 1 2 4 1 219 220
221 1 2 4 1 220 221
222 1 2 4 1 221 222
223 1 2 4 1 222 223
224 1 2 4 1 223 224
225 1 2 4 1 224 225
226 1 2 4 1 225 226
227 1 2 4 1 226 227
228 1 2 4 1 227 228
229 1 2 4 1 228 229
230 1 2 4 1 229 230
231 1 2 4 1 230 231
232 1 2 4 1 231 232
233 1 2 4 1 232 233
234 1 2 4 1 233 234
235 1 2 4 1 234 235
236 1 2 4 1 235 236
237 1 2 4 1 236 237
238 1 2 4 1 237 238
239 1 2 4 1 238 239
240 1 2 4 1 239 240
241 1 2 4 1 240 241
242 1 2 4 1 241 242
243 1 2 4 1 242 243
244 1 2 4 1 243 244
245 1 2 4 1 244 245
246 1 2 4 1 245 246
247 1 2 4 1 246 247
248 1 2 4 1 247 248
249 1 2 4 1 248 249
250 1 2 4 1 249 250
251 1 2 4 1 250 251
252 1 2 4 1 251 252
253 1 2 4 1 252 253
254 1 2 4 1 253 254
255 1 2 4 1 254 255
256 1 2 4 1 255 256
257 1 2 4 1 256 257
258 1 2 4 1 257 2
$EndElements
