Point(1) = {0, 0, 0, 1.0};
Point(2) = {20, 0, 0, 1.0};
Point(3) = {20, 2, 0, 1.0};
Point(4) = {0, 2, 0, 1.0};
Point(5) = {2, 1, 0, 1.0};
Point(6) = {4, 1, 0, 1.0};
Point(7) = {6, 1, 0, 1.0};
Point(8) = {8, 1, 0, 1.0};
Point(9) = {10, 1, 0, 1.0};
Point(10) = {12, 1, 0, 1.0};
Point(11) = {14, 1, 0, 1.0};
Point(12) = {16, 1, 0, 1.0};
Point(13) = {18, 1, 0, 1.0};
Point(14) = {18, 1.5, 0, 1.0};
Point(15) = {18, 0.5, 0, 1.0};
Point(16) = {16, 0.5, 0, 1.0};
Point(17) = {14, 0.5, 0, 1.0};
Point(18) = {12, 0.5, 0, 1.0};
Point(19) = {10, 0.5, 0, 1.0};
Point(20) = {8, 0.5, 0, 1.0};
Point(21) = {6, 0.5, 0, 1.0};
Point(22) = {4, 0.5, 0, 1.0};
Point(23) = {2, 0.5, 0, 1.0};
Point(24) = {2, 1.5, 0, 1.0};
Point(25) = {4, 1.5, 0, 1.0};
Point(26) = {6, 1.5, 0, 1.0};
Point(27) = {8, 1.5, 0, 1.0};
Point(28) = {10, 1.5, 0, 1.0};
Point(29) = {12, 1.5, 0, 1.0};
Point(30) = {14, 1.5, 0, 1.0};
Point(31) = {16, 1.5, 0, 1.0};
Point(32) = {1.5, 1, 0, 1.0};
Point(33) = {2.5, 1, 0, 1.0};
Point(34) = {3.5, 1, 0, 1.0};
Point(35) = {4.5, 1, 0, 1.0};
Point(36) = {5.5, 1, 0, 1.0};
Point(37) = {6.5, 1, 0, 1.0};
Point(38) = {7.5, 1, 0, 1.0};
Point(39) = {8.5, 1, 0, 1.0};
Point(40) = {9.5, 1, 0, 1.0};
Point(41) = {10.5, 1, 0, 1.0};
Point(42) = {11.5, 1, 0, 1.0};
Point(43) = {12.5, 1, 0, 1.0};
Point(44) = {13.5, 1, 0, 1.0};
Point(45) = {14.5, 1, 0, 1.0};
Point(46) = {15.5, 1, 0, 1.0};
Point(47) = {16.5, 1, 0, 1.0};
Point(48) = {17.5, 1, 0, 1.0};
Point(49) = {18.5, 1, 0, 1.0};
Line(1) = {1, 2};
Line(2) = {2, 3};
Line(3) = {3, 4};
Line(4) = {1, 4};
Circle(5) = {23, 5, 33};
Circle(6) = {33, 5, 24};
Circle(7) = {24, 5, 32};
Circle(8) = {32, 5, 23};
Circle(9) = {22, 6, 35};
Circle(10) = {35, 6, 25};
Circle(11) = {25, 6, 34};
Circle(12) = {34, 6, 22};
Circle(13) = {21, 7, 37};
Circle(14) = {37, 7, 26};
Circle(15) = {26, 7, 36};
Circle(16) = {36, 7, 21};
Circle(17) = {20, 8, 39};
Circle(18) = {39, 8, 27};
Circle(19) = {27, 8, 38};
Circle(20) = {38, 8, 20};
Circle(21) = {19, 9, 41};
Circle(22) = {41, 9, 28};
Circle(23) = {28, 9, 40};
Circle(24) = {40, 9, 19};
Circle(25) = {18, 10, 43};
Circle(26) = {29, 10, 42};
Circle(27) = {42, 10, 18};
Circle(28) = {43, 10, 29};
Circle(29) = {17, 11, 45};
Circle(30) = {45, 11, 30};
Circle(31) = {30, 11, 44};
Circle(32) = {44, 11, 17};
Circle(33) = {16, 12, 47};
Circle(34) = {47, 12, 31};
Circle(35) = {31, 12, 46};
Circle(36) = {46, 12, 16};
Circle(37) = {15, 13, 49};
Circle(38) = {49, 13, 14};
Circle(39) = {14, 13, 48};
Circle(40) = {48, 13, 15};
Line Loop(41) = {1, 2, 3, -4};
Line Loop(42) = {40, 37, 38, 39};
Line Loop(43) = {33, 34, 35, 36};
Line Loop(44) = {29, 30, 31, 32};
Line Loop(45) = {25, 28, 26, 27};
Line Loop(46) = {21, 22, 23, 24};
Line Loop(47) = {17, 18, 19, 20};
Line Loop(48) = {13, 14, 15, 16};
Line Loop(49) = {9, 10, 11, 12};
Line Loop(50) = {5, 6, 7, 8};
Plane Surface(51) = {41, 42, 43, 44, 45, 46, 47, 48, 49, 50};
Extrude {0, 0, 4} {
  Surface{51};
}
Surface Loop(254) = {180, 51, 96, 100, 104, 108, 253, 112, 116, 120, 124, 128, 132, 136, 140, 144, 148, 152, 156, 160, 164, 168, 172, 176, 188, 184, 192, 196, 200, 204, 208, 212, 216, 220, 224, 228, 232, 236, 240, 244, 248, 252};
Volume(255) = {254};
Physical Surface(256) = {96, 104, 51, 253, 120, 112, 116, 124, 140, 136, 132, 128, 156, 152, 148, 144, 172, 168, 164, 160, 188, 184, 180, 176, 204, 200, 196, 192, 220, 216, 212, 208, 252, 248, 244, 240, 236, 232, 228, 224};
Physical Surface(257) = {108};
Physical Surface(258) = {100};
Physical Volume(259) = {255};
