Point(1) = {0, 0, 0, 1.0};
Point(2) = {20, 0, 0, 1.0};
Point(3) = {20, 2, 0, 1.0};
Point(4) = {0, 2, 0, 1.0};
Point(5) = {10, 0, 0, 1.0};
Point(6) = {2, 1, 0, 1.0};
Point(7) = {4, 1, 0, 1.0};
Point(8) = {6, 1, 0, 1.0};
Point(9) = {8, 1, 0, 1.0};
Point(10) = {10, 1, 0, 1.0};
Point(11) = {12, 1, 0, 1.0};
Point(12) = {14, 1, 0, 1.0};
Point(13) = {16, 1, 0, 1.0};
Point(14) = {18, 1, 0, 1.0};
Point(15) = {2, 0.5, 0, 1.0};
Point(16) = {2, 1.5, 0, 1.0};
Point(17) = {4, 1.5, 0, 1.0};
Point(18) = {6, 1.5, 0, 1.0};
Point(19) = {8, 1.5, 0, 1.0};
Point(20) = {10, 1.5, 0, 1.0};
Point(21) = {12, 1.5, 0, 1.0};
Point(22) = {14, 1.5, 0, 1.0};
Point(23) = {16, 1.5, 0, 1.0};
Point(24) = {18, 1.5, 0, 1.0};
Point(25) = {18, 0.5, 0, 1.0};
Point(26) = {16, 0.5, 0, 1.0};
Point(27) = {14, 0.5, 0, 1.0};
Point(28) = {12, 0.5, 0, 1.0};
Point(29) = {10, 0.5, 0, 1.0};
Point(30) = {18, 0.5, 0, 1.0};
Point(31) = {6, 0.5, 0, 1.0};
Point(32) = {8, 0.5, 0, 1.0};
Point(33) = {4, 0.5, 0, 1.0};
Point(34) = {1.5, 1, 0, 1.0};
Point(35) = {3.5, 1, 0, 1.0};
Point(36) = {5.5, 1, 0, 1.0};
Point(37) = {7.5, 1, 0, 1.0};
Point(38) = {9.5, 1, 0, 1.0};
Point(39) = {11.5, 1, 0, 1.0};
Point(40) = {13.5, 1, 0, 1.0};
Point(41) = {15.5, 1, 0, 1.0};
Point(42) = {17.5, 1, 0, 1.0};
Point(43) = {2.5, 1, 0, 1.0};
Point(44) = {4.5, 1, 0, 1.0};
Point(45) = {6.5, 1, 0, 1.0};
Point(46) = {8.5, 1, 0, 1.0};
Point(47) = {10.5, 1, 0, 1.0};
Point(48) = {12.5, 1, 0, 1.0};
Point(49) = {14.5, 1, 0, 1.0};
Point(50) = {16.5, 1, 0, 1.0};
Point(51) = {18.5, 1, 0, 1.0};
Line(1) = {4, 1};
Line(2) = {1, 5};
Line(3) = {5, 2};
Line(4) = {2, 3};
Line(5) = {3, 4};
Circle(6) = {15, 6, 43};
Circle(7) = {43, 6, 16};
Circle(8) = {16, 6, 34};
Circle(9) = {34, 6, 15};
Circle(10) = {33, 7, 44};
Circle(11) = {44, 7, 17};
Circle(12) = {17, 7, 35};
Circle(13) = {35, 7, 33};
Circle(14) = {31, 8, 45};
Circle(15) = {45, 8, 18};
Circle(16) = {18, 8, 36};
Circle(17) = {36, 8, 31};
Circle(18) = {32, 9, 46};
Circle(19) = {46, 9, 19};
Circle(20) = {19, 9, 37};
Circle(21) = {37, 9, 32};
Circle(22) = {29, 10, 47};
Circle(23) = {47, 10, 20};
Circle(24) = {20, 10, 38};
Circle(25) = {38, 10, 29};
Circle(26) = {28, 11, 48};
Circle(27) = {48, 11, 21};
Circle(28) = {21, 11, 39};
Circle(29) = {39, 11, 28};
Circle(30) = {27, 12, 49};
Circle(31) = {49, 12, 22};
Circle(32) = {22, 12, 40};
Circle(33) = {40, 12, 27};
Circle(34) = {26, 13, 50};
Circle(35) = {50, 13, 23};
Circle(36) = {23, 13, 41};
Circle(37) = {41, 13, 26};
Circle(38) = {25, 14, 51};
Circle(39) = {51, 14, 24};
Circle(40) = {24, 14, 42};
Circle(41) = {42, 14, 25};
Line Loop(42) = {3, 4, 5, 1, 2};
Line Loop(43) = {30, 31, 32, 33};
Line Loop(44) = {37, 34, 35, 36};
Line Loop(45) = {41, 38, 39, 40};
Line Loop(46) = {26, 27, 28, 29};
Line Loop(47) = {22, 23, 24, 25};
Line Loop(48) = {18, 19, 20, 21};
Line Loop(49) = {14, 15, 16, 17};
Line Loop(50) = {10, 11, 12, 13};
Line Loop(51) = {6, 7, 8, 9};
Plane Surface(52) = {42, 43, 44, 45, 46, 47, 48, 49, 50, 51};
Physical Line(53) = {1, 2};
Physical Line(54) = {3, 5, 41, 38, 39, 40, 34, 35, 36, 37, 30, 31, 32, 33, 26, 27, 28, 29, 22, 23, 24, 25, 18, 19, 20, 21, 14, 15, 16, 17, 10, 11, 12, 13, 6, 7, 8, 9};
Physical Line(55) = {4};
Physical Surface(56) = {52};
