
Point(1) = {-4, 0, 0, 1.0};
Point(2) = {4, 0, 0, 1.0};
Point(3) = {4, 0.5, 0, 1.0};
Point(4) = {-4, 0.5, 0, 1.0};
Point(5) = {0.25, 0.5, 0, 1.0};
Point(6) = {-0.25, 0.5, 0, 1.0};
Point(7) = {0.25, 12, 0, 1.0};
Point(8) = {-0.25, 12, 0, 1.0};
Point(9) = {4, 12, 0, 1.0};
Point(10) = {-4, 12, 0, 1.0};
Point(11) = {-4, 12.5, 0, 1.0};
Point(12) = {4, 12.5, 0, 1.0};
Line(1) = {1, 2};
Line(2) = {2, 3};
Line(3) = {3, 5};
Line(4) = {5, 7};
Line(5) = {7, 9};
Line(6) = {9, 12};
Line(7) = {12, 11};
Line(8) = {11, 10};
Line(9) = {10, 8};
Line(10) = {8, 6};
Line(11) = {6, 4};
Line(12) = {4, 1};
Line Loop(13) = {4, 5, 6, 7, 8, 9, 10, 11, 12, 1, 2, 3};
Plane Surface(14) = {13};
Extrude {0, 0, 80} {
  Surface{14};
}
Surface Loop(77) = {31, 14, 35, 39, 43, 47, 51, 55, 59, 63, 67, 71, 75, 76};
Volume(78) = {77};
Physical Surface(79) = {55, 31, 71, 75, 67, 59, 63, 39, 35, 43, 51, 47};
Physical Surface(80) = {14};
Physical Surface(81) = {76};
Physical Volume(82) = {1};
