Point(1) = {0, 0, 0, 1.0};
Point(2) = {8, 0, 0, 1.0};
Point(3) = {8, -0.75, 0, 1.0};
Point(4) = {20, -0.75, 0, 1.0};
Point(5) = {20, 2.25, 0, 1.0};
Point(6) = {8, 2.25, 0, 1.0};
Point(7) = {8, 1.5, 0, 1.0};
Point(8) = {0, 1.5, 0, 1.0};
Point(9) = {10, 0.75, 0, 1.0};
Point(10) = {9, 0.75, 0, 1.0};
Point(11) = {11, 0.75, 0, 1.0};
Point(12) = {10, 1.75, 0, 1.0};
Point(13) = {10, -0.25, 0, 1.0};
Line(1) = {1, 2};
Line(2) = {2, 3};
Line(3) = {3, 4};
Line(4) = {4, 5};
Line(5) = {5, 6};
Line(6) = {6, 7};
Line(7) = {7, 8};
Line(8) = {8, 1};
Circle(9) = {13, 9, 11};
Circle(10) = {11, 9, 12};
Circle(11) = {12, 9, 10};
Circle(12) = {10, 9, 13};
Line Loop(13) = {3, 4, 5, 6, 7, 8, 1, 2};
Line Loop(14) = {9, 10, 11, 12};
Plane Surface(15) = {13, 14};
Physical Line(16) = {8, 4};
Physical Line(17) = {1, 2, 3, 5, 6, 7, 12, 9, 10, 11};
Physical Surface(18) = {15};
