Point(1) = {0, 0, 0, 1.0};
Point(2) = {4, 0, 0, 1.0};
Point(3) = {4, -2, 0, 1.0};
Point(4) = {12, -2, 0, 1.0};
Point(5) = {12, 2, 0, 1.0};
Point(6) = {0, 2, 0, 1.0};
Line(1) = {1, 2};
Line(2) = {2, 3};
Line(3) = {3, 4};
Line(4) = {4, 5};
Line(5) = {5, 6};
Line(6) = {6, 1};
Line Loop(7) = {3, 4, 5, 6, 1, 2};
Plane Surface(8) = {7};
Physical Line(9) = {6, 4};
Physical Line(10) = {1, 2, 3, 5};
Physical Surface(11) = {8};
