Point(1) = {0, 0, 0, 1.0};
Point(2) = {10, 0, 0, 1.0};
Point(3) = {10, 2, 0, 1.0};
Point(4) = {0, 2, 0, 1.0};
Point(5) = {2, 1, 0, 1.0};
Point(6) = {2, 1.5, 0, 1.0};
Point(7) = {2, 0.5, 0, 1.0};
Point(8) = {2.5, 1, 0, 1.0};
Point(9) = {1.5, 1, 0, 1.0};
Circle(1) = {7, 5, 8};
Circle(2) = {8, 5, 6};
Circle(3) = {6, 5, 9};
Circle(4) = {9, 5, 7};
Line(5) = {1, 2};
Line(6) = {2, 3};
Line(7) = {3, 4};
Line(8) = {4, 1};
Line Loop(9) = {5, 6, 7, 8};
Line Loop(10) = {1, 2, 3, 4};
Plane Surface(11) = {9, 10};
Physical Line(12) = {8, 6};
Physical Line(13) = {5, 7, 2, 3, 4, 1};
Physical Surface(14) = {11};
